{
  "npmScope": "chips",
  "implicitDependencies": {
    "angular.json": "*",
    "package.json": "*",
    "tsconfig.json": "*",
    "tslint.json": "*",
    "nx.json": "*"
  },
  "projects": {
    "chips": {
      "tags": [
        "chips"
      ]
    },
    "chips-e2e": {
      "tags": []
    }
  }
}
